-- Merging decision tree log ---
manifest
ADDED from /home/cbpaguay/disp_movil/capitulos_android/Source_Code_Chapter_3/3_06_RESTWithRetrofit/src/main/AndroidManifest.xml:2:1-25:12
INJECTED from /home/cbpaguay/disp_movil/capitulos_android/Source_Code_Chapter_3/3_06_RESTWithRetrofit/src/main/AndroidManifest.xml:2:1-25:12
INJECTED from /home/cbpaguay/disp_movil/capitulos_android/Source_Code_Chapter_3/3_06_RESTWithRetrofit/src/main/AndroidManifest.xml:2:1-25:12
INJECTED from /home/cbpaguay/disp_movil/capitulos_android/Source_Code_Chapter_3/3_06_RESTWithRetrofit/src/main/AndroidManifest.xml:2:1-25:12
MERGED from [com.android.support:design:24.2.0] /home/cbpaguay/.gradle/caches/transforms-2/files-2.1/9bc8876ce161ddb2afb061d80692fbda/design-24.2.0/AndroidManifest.xml:17:1-24:12
MERGED from [com.android.support:appcompat-v7:24.2.0] /home/cbpaguay/.gradle/caches/transforms-2/files-2.1/2aa129a25abc8722bb5e1735a1f49a5e/appcompat-v7-24.2.0/AndroidManifest.xml:17:1-27:12
MERGED from [com.android.support:support-v4:24.2.0] /home/cbpaguay/.gradle/caches/transforms-2/files-2.1/b0e55e3ddaf5656c134668b134d362b4/support-v4-24.2.0/AndroidManifest.xml:17:1-27:12
MERGED from [com.android.support:recyclerview-v7:24.2.0] /home/cbpaguay/.gradle/caches/transforms-2/files-2.1/e33e394c6030b3065b00462e23b3d39e/recyclerview-v7-24.2.0/AndroidManifest.xml:17:1-22:12
MERGED from [com.android.support:cardview-v7:24.2.0] /home/cbpaguay/.gradle/caches/transforms-2/files-2.1/064c09d30554f614e30395fe8d1cce2d/cardview-v7-24.2.0/AndroidManifest.xml:17:1-24:12
MERGED from [com.android.support.constraint:constraint-layout:1.0.2] /home/cbpaguay/.gradle/caches/transforms-2/files-2.1/b703eeb50455644a9f19e020c78f6a7d/constraint-layout-1.0.2/AndroidManifest.xml:2:1-11:12
MERGED from [com.android.support:support-fragment:24.2.0] /home/cbpaguay/.gradle/caches/transforms-2/files-2.1/c5c1f0618563402a555c964600c2c96f/support-fragment-24.2.0/AndroidManifest.xml:17:1-27:12
MERGED from [com.android.support:support-core-utils:24.2.0] /home/cbpaguay/.gradle/caches/transforms-2/files-2.1/77c604c47a29aa817e38bacf44f8566c/support-core-utils-24.2.0/AndroidManifest.xml:17:1-27:12
MERGED from [com.android.support:support-media-compat:24.2.0] /home/cbpaguay/.gradle/caches/transforms-2/files-2.1/ec78044e96832e0b0535a1998dfe9a11/support-media-compat-24.2.0/AndroidManifest.xml:17:1-27:12
MERGED from [com.android.support:support-core-ui:24.2.0] /home/cbpaguay/.gradle/caches/transforms-2/files-2.1/122a60a1be2d7350a0d1ccad64475eed/support-core-ui-24.2.0/AndroidManifest.xml:17:1-27:12
MERGED from [com.android.support:animated-vector-drawable:24.2.0] /home/cbpaguay/.gradle/caches/transforms-2/files-2.1/1e10b7c8742994fa78a6ea8ca3af6d29/animated-vector-drawable-24.2.0/AndroidManifest.xml:17:1-24:12
MERGED from [com.android.support:support-vector-drawable:24.2.0] /home/cbpaguay/.gradle/caches/transforms-2/files-2.1/05827b50c1087358ece872f97f332a52/support-vector-drawable-24.2.0/AndroidManifest.xml:17:1-25:12
MERGED from [com.android.support:support-compat:24.2.0] /home/cbpaguay/.gradle/caches/transforms-2/files-2.1/497b042d7fde88db6c2bd366aa27826c/support-compat-24.2.0/AndroidManifest.xml:17:1-27:12
INJECTED from /home/cbpaguay/disp_movil/capitulos_android/Source_Code_Chapter_3/3_06_RESTWithRetrofit/src/main/AndroidManifest.xml:2:1-25:12
INJECTED from /home/cbpaguay/disp_movil/capitulos_android/Source_Code_Chapter_3/3_06_RESTWithRetrofit/src/main/AndroidManifest.xml:2:1-25:12
INJECTED from /home/cbpaguay/disp_movil/capitulos_android/Source_Code_Chapter_3/3_06_RESTWithRetrofit/src/main/AndroidManifest.xml:2:1-25:12
	package
		ADDED from /home/cbpaguay/disp_movil/capitulos_android/Source_Code_Chapter_3/3_06_RESTWithRetrofit/src/main/AndroidManifest.xml:3:11-44
		INJECTED from /home/cbpaguay/disp_movil/capitulos_android/Source_Code_Chapter_3/3_06_RESTWithRetrofit/src/main/AndroidManifest.xml
		INJECTED from /home/cbpaguay/disp_movil/capitulos_android/Source_Code_Chapter_3/3_06_RESTWithRetrofit/src/main/AndroidManifest.xml
	android:versionName
		ADDED from /home/cbpaguay/disp_movil/capitulos_android/Source_Code_Chapter_3/3_06_RESTWithRetrofit/src/main/AndroidManifest.xml:5:11-36
		INJECTED from /home/cbpaguay/disp_movil/capitulos_android/Source_Code_Chapter_3/3_06_RESTWithRetrofit/src/main/AndroidManifest.xml
		INJECTED from /home/cbpaguay/disp_movil/capitulos_android/Source_Code_Chapter_3/3_06_RESTWithRetrofit/src/main/AndroidManifest.xml
	xmlns:android
		ADDED from /home/cbpaguay/disp_movil/capitulos_android/Source_Code_Chapter_3/3_06_RESTWithRetrofit/src/main/AndroidManifest.xml:2:11-69
	android:versionCode
		ADDED from /home/cbpaguay/disp_movil/capitulos_android/Source_Code_Chapter_3/3_06_RESTWithRetrofit/src/main/AndroidManifest.xml:4:11-34
		INJECTED from /home/cbpaguay/disp_movil/capitulos_android/Source_Code_Chapter_3/3_06_RESTWithRetrofit/src/main/AndroidManifest.xml
		INJECTED from /home/cbpaguay/disp_movil/capitulos_android/Source_Code_Chapter_3/3_06_RESTWithRetrofit/src/main/AndroidManifest.xml
uses-permission#android.permission.INTERNET
ADDED from /home/cbpaguay/disp_movil/capitulos_android/Source_Code_Chapter_3/3_06_RESTWithRetrofit/src/main/AndroidManifest.xml:7:5-66
	android:name
		ADDED from /home/cbpaguay/disp_movil/capitulos_android/Source_Code_Chapter_3/3_06_RESTWithRetrofit/src/main/AndroidManifest.xml:7:22-64
uses-permission#android.permission.WRITE_EXTERNAL_STORAGE
ADDED from /home/cbpaguay/disp_movil/capitulos_android/Source_Code_Chapter_3/3_06_RESTWithRetrofit/src/main/AndroidManifest.xml:8:5-80
	android:name
		ADDED from /home/cbpaguay/disp_movil/capitulos_android/Source_Code_Chapter_3/3_06_RESTWithRetrofit/src/main/AndroidManifest.xml:8:22-78
application
ADDED from /home/cbpaguay/disp_movil/capitulos_android/Source_Code_Chapter_3/3_06_RESTWithRetrofit/src/main/AndroidManifest.xml:10:5-23:19
MERGED from [com.android.support:design:24.2.0] /home/cbpaguay/.gradle/caches/transforms-2/files-2.1/9bc8876ce161ddb2afb061d80692fbda/design-24.2.0/AndroidManifest.xml:22:5-20
MERGED from [com.android.support:design:24.2.0] /home/cbpaguay/.gradle/caches/transforms-2/files-2.1/9bc8876ce161ddb2afb061d80692fbda/design-24.2.0/AndroidManifest.xml:22:5-20
MERGED from [com.android.support:appcompat-v7:24.2.0] /home/cbpaguay/.gradle/caches/transforms-2/files-2.1/2aa129a25abc8722bb5e1735a1f49a5e/appcompat-v7-24.2.0/AndroidManifest.xml:25:5-20
MERGED from [com.android.support:appcompat-v7:24.2.0] /home/cbpaguay/.gradle/caches/transforms-2/files-2.1/2aa129a25abc8722bb5e1735a1f49a5e/appcompat-v7-24.2.0/AndroidManifest.xml:25:5-20
MERGED from [com.android.support:support-v4:24.2.0] /home/cbpaguay/.gradle/caches/transforms-2/files-2.1/b0e55e3ddaf5656c134668b134d362b4/support-v4-24.2.0/AndroidManifest.xml:25:5-20
MERGED from [com.android.support:support-v4:24.2.0] /home/cbpaguay/.gradle/caches/transforms-2/files-2.1/b0e55e3ddaf5656c134668b134d362b4/support-v4-24.2.0/AndroidManifest.xml:25:5-20
MERGED from [com.android.support:cardview-v7:24.2.0] /home/cbpaguay/.gradle/caches/transforms-2/files-2.1/064c09d30554f614e30395fe8d1cce2d/cardview-v7-24.2.0/AndroidManifest.xml:22:5-20
MERGED from [com.android.support:cardview-v7:24.2.0] /home/cbpaguay/.gradle/caches/transforms-2/files-2.1/064c09d30554f614e30395fe8d1cce2d/cardview-v7-24.2.0/AndroidManifest.xml:22:5-20
MERGED from [com.android.support.constraint:constraint-layout:1.0.2] /home/cbpaguay/.gradle/caches/transforms-2/files-2.1/b703eeb50455644a9f19e020c78f6a7d/constraint-layout-1.0.2/AndroidManifest.xml:9:5-20
MERGED from [com.android.support.constraint:constraint-layout:1.0.2] /home/cbpaguay/.gradle/caches/transforms-2/files-2.1/b703eeb50455644a9f19e020c78f6a7d/constraint-layout-1.0.2/AndroidManifest.xml:9:5-20
MERGED from [com.android.support:support-fragment:24.2.0] /home/cbpaguay/.gradle/caches/transforms-2/files-2.1/c5c1f0618563402a555c964600c2c96f/support-fragment-24.2.0/AndroidManifest.xml:25:5-20
MERGED from [com.android.support:support-fragment:24.2.0] /home/cbpaguay/.gradle/caches/transforms-2/files-2.1/c5c1f0618563402a555c964600c2c96f/support-fragment-24.2.0/AndroidManifest.xml:25:5-20
MERGED from [com.android.support:support-core-utils:24.2.0] /home/cbpaguay/.gradle/caches/transforms-2/files-2.1/77c604c47a29aa817e38bacf44f8566c/support-core-utils-24.2.0/AndroidManifest.xml:25:5-20
MERGED from [com.android.support:support-core-utils:24.2.0] /home/cbpaguay/.gradle/caches/transforms-2/files-2.1/77c604c47a29aa817e38bacf44f8566c/support-core-utils-24.2.0/AndroidManifest.xml:25:5-20
MERGED from [com.android.support:support-media-compat:24.2.0] /home/cbpaguay/.gradle/caches/transforms-2/files-2.1/ec78044e96832e0b0535a1998dfe9a11/support-media-compat-24.2.0/AndroidManifest.xml:25:5-20
MERGED from [com.android.support:support-media-compat:24.2.0] /home/cbpaguay/.gradle/caches/transforms-2/files-2.1/ec78044e96832e0b0535a1998dfe9a11/support-media-compat-24.2.0/AndroidManifest.xml:25:5-20
MERGED from [com.android.support:support-core-ui:24.2.0] /home/cbpaguay/.gradle/caches/transforms-2/files-2.1/122a60a1be2d7350a0d1ccad64475eed/support-core-ui-24.2.0/AndroidManifest.xml:25:5-20
MERGED from [com.android.support:support-core-ui:24.2.0] /home/cbpaguay/.gradle/caches/transforms-2/files-2.1/122a60a1be2d7350a0d1ccad64475eed/support-core-ui-24.2.0/AndroidManifest.xml:25:5-20
MERGED from [com.android.support:animated-vector-drawable:24.2.0] /home/cbpaguay/.gradle/caches/transforms-2/files-2.1/1e10b7c8742994fa78a6ea8ca3af6d29/animated-vector-drawable-24.2.0/AndroidManifest.xml:22:5-20
MERGED from [com.android.support:animated-vector-drawable:24.2.0] /home/cbpaguay/.gradle/caches/transforms-2/files-2.1/1e10b7c8742994fa78a6ea8ca3af6d29/animated-vector-drawable-24.2.0/AndroidManifest.xml:22:5-20
MERGED from [com.android.support:support-vector-drawable:24.2.0] /home/cbpaguay/.gradle/caches/transforms-2/files-2.1/05827b50c1087358ece872f97f332a52/support-vector-drawable-24.2.0/AndroidManifest.xml:23:5-20
MERGED from [com.android.support:support-vector-drawable:24.2.0] /home/cbpaguay/.gradle/caches/transforms-2/files-2.1/05827b50c1087358ece872f97f332a52/support-vector-drawable-24.2.0/AndroidManifest.xml:23:5-20
MERGED from [com.android.support:support-compat:24.2.0] /home/cbpaguay/.gradle/caches/transforms-2/files-2.1/497b042d7fde88db6c2bd366aa27826c/support-compat-24.2.0/AndroidManifest.xml:25:5-20
MERGED from [com.android.support:support-compat:24.2.0] /home/cbpaguay/.gradle/caches/transforms-2/files-2.1/497b042d7fde88db6c2bd366aa27826c/support-compat-24.2.0/AndroidManifest.xml:25:5-20
	android:label
		ADDED from /home/cbpaguay/disp_movil/capitulos_android/Source_Code_Chapter_3/3_06_RESTWithRetrofit/src/main/AndroidManifest.xml:12:9-41
	android:icon
		ADDED from /home/cbpaguay/disp_movil/capitulos_android/Source_Code_Chapter_3/3_06_RESTWithRetrofit/src/main/AndroidManifest.xml:11:9-45
activity#com.androidrecipes.rest.RetrofitActivity
ADDED from /home/cbpaguay/disp_movil/capitulos_android/Source_Code_Chapter_3/3_06_RESTWithRetrofit/src/main/AndroidManifest.xml:13:9-22:20
	android:label
		ADDED from /home/cbpaguay/disp_movil/capitulos_android/Source_Code_Chapter_3/3_06_RESTWithRetrofit/src/main/AndroidManifest.xml:15:13-60
	android:theme
		ADDED from /home/cbpaguay/disp_movil/capitulos_android/Source_Code_Chapter_3/3_06_RESTWithRetrofit/src/main/AndroidManifest.xml:16:13-56
	android:name
		ADDED from /home/cbpaguay/disp_movil/capitulos_android/Source_Code_Chapter_3/3_06_RESTWithRetrofit/src/main/AndroidManifest.xml:14:13-68
intent-filter#action:name:android.intent.action.MAIN+category:name:android.intent.category.LAUNCHER
ADDED from /home/cbpaguay/disp_movil/capitulos_android/Source_Code_Chapter_3/3_06_RESTWithRetrofit/src/main/AndroidManifest.xml:17:13-21:29
action#android.intent.action.MAIN
ADDED from /home/cbpaguay/disp_movil/capitulos_android/Source_Code_Chapter_3/3_06_RESTWithRetrofit/src/main/AndroidManifest.xml:18:17-68
	android:name
		ADDED from /home/cbpaguay/disp_movil/capitulos_android/Source_Code_Chapter_3/3_06_RESTWithRetrofit/src/main/AndroidManifest.xml:18:25-66
category#android.intent.category.LAUNCHER
ADDED from /home/cbpaguay/disp_movil/capitulos_android/Source_Code_Chapter_3/3_06_RESTWithRetrofit/src/main/AndroidManifest.xml:20:17-76
	android:name
		ADDED from /home/cbpaguay/disp_movil/capitulos_android/Source_Code_Chapter_3/3_06_RESTWithRetrofit/src/main/AndroidManifest.xml:20:27-74
uses-sdk
INJECTED from /home/cbpaguay/disp_movil/capitulos_android/Source_Code_Chapter_3/3_06_RESTWithRetrofit/src/main/AndroidManifest.xml reason: use-sdk injection requested
INJECTED from /home/cbpaguay/disp_movil/capitulos_android/Source_Code_Chapter_3/3_06_RESTWithRetrofit/src/main/AndroidManifest.xml
INJECTED from /home/cbpaguay/disp_movil/capitulos_android/Source_Code_Chapter_3/3_06_RESTWithRetrofit/src/main/AndroidManifest.xml
MERGED from [com.android.support:design:24.2.0] /home/cbpaguay/.gradle/caches/transforms-2/files-2.1/9bc8876ce161ddb2afb061d80692fbda/design-24.2.0/AndroidManifest.xml:20:5-43
MERGED from [com.android.support:design:24.2.0] /home/cbpaguay/.gradle/caches/transforms-2/files-2.1/9bc8876ce161ddb2afb061d80692fbda/design-24.2.0/AndroidManifest.xml:20:5-43
MERGED from [com.android.support:appcompat-v7:24.2.0] /home/cbpaguay/.gradle/caches/transforms-2/files-2.1/2aa129a25abc8722bb5e1735a1f49a5e/appcompat-v7-24.2.0/AndroidManifest.xml:21:5-23:78
MERGED from [com.android.support:appcompat-v7:24.2.0] /home/cbpaguay/.gradle/caches/transforms-2/files-2.1/2aa129a25abc8722bb5e1735a1f49a5e/appcompat-v7-24.2.0/AndroidManifest.xml:21:5-23:78
MERGED from [com.android.support:support-v4:24.2.0] /home/cbpaguay/.gradle/caches/transforms-2/files-2.1/b0e55e3ddaf5656c134668b134d362b4/support-v4-24.2.0/AndroidManifest.xml:21:5-23:54
MERGED from [com.android.support:support-v4:24.2.0] /home/cbpaguay/.gradle/caches/transforms-2/files-2.1/b0e55e3ddaf5656c134668b134d362b4/support-v4-24.2.0/AndroidManifest.xml:21:5-23:54
MERGED from [com.android.support:recyclerview-v7:24.2.0] /home/cbpaguay/.gradle/caches/transforms-2/files-2.1/e33e394c6030b3065b00462e23b3d39e/recyclerview-v7-24.2.0/AndroidManifest.xml:20:5-43
MERGED from [com.android.support:recyclerview-v7:24.2.0] /home/cbpaguay/.gradle/caches/transforms-2/files-2.1/e33e394c6030b3065b00462e23b3d39e/recyclerview-v7-24.2.0/AndroidManifest.xml:20:5-43
MERGED from [com.android.support:cardview-v7:24.2.0] /home/cbpaguay/.gradle/caches/transforms-2/files-2.1/064c09d30554f614e30395fe8d1cce2d/cardview-v7-24.2.0/AndroidManifest.xml:20:5-43
MERGED from [com.android.support:cardview-v7:24.2.0] /home/cbpaguay/.gradle/caches/transforms-2/files-2.1/064c09d30554f614e30395fe8d1cce2d/cardview-v7-24.2.0/AndroidManifest.xml:20:5-43
MERGED from [com.android.support.constraint:constraint-layout:1.0.2] /home/cbpaguay/.gradle/caches/transforms-2/files-2.1/b703eeb50455644a9f19e020c78f6a7d/constraint-layout-1.0.2/AndroidManifest.xml:5:5-7:41
MERGED from [com.android.support.constraint:constraint-layout:1.0.2] /home/cbpaguay/.gradle/caches/transforms-2/files-2.1/b703eeb50455644a9f19e020c78f6a7d/constraint-layout-1.0.2/AndroidManifest.xml:5:5-7:41
MERGED from [com.android.support:support-fragment:24.2.0] /home/cbpaguay/.gradle/caches/transforms-2/files-2.1/c5c1f0618563402a555c964600c2c96f/support-fragment-24.2.0/AndroidManifest.xml:21:5-23:60
MERGED from [com.android.support:support-fragment:24.2.0] /home/cbpaguay/.gradle/caches/transforms-2/files-2.1/c5c1f0618563402a555c964600c2c96f/support-fragment-24.2.0/AndroidManifest.xml:21:5-23:60
MERGED from [com.android.support:support-core-utils:24.2.0] /home/cbpaguay/.gradle/caches/transforms-2/files-2.1/77c604c47a29aa817e38bacf44f8566c/support-core-utils-24.2.0/AndroidManifest.xml:21:5-23:61
MERGED from [com.android.support:support-core-utils:24.2.0] /home/cbpaguay/.gradle/caches/transforms-2/files-2.1/77c604c47a29aa817e38bacf44f8566c/support-core-utils-24.2.0/AndroidManifest.xml:21:5-23:61
MERGED from [com.android.support:support-media-compat:24.2.0] /home/cbpaguay/.gradle/caches/transforms-2/files-2.1/ec78044e96832e0b0535a1998dfe9a11/support-media-compat-24.2.0/AndroidManifest.xml:21:5-23:63
MERGED from [com.android.support:support-media-compat:24.2.0] /home/cbpaguay/.gradle/caches/transforms-2/files-2.1/ec78044e96832e0b0535a1998dfe9a11/support-media-compat-24.2.0/AndroidManifest.xml:21:5-23:63
MERGED from [com.android.support:support-core-ui:24.2.0] /home/cbpaguay/.gradle/caches/transforms-2/files-2.1/122a60a1be2d7350a0d1ccad64475eed/support-core-ui-24.2.0/AndroidManifest.xml:21:5-23:58
MERGED from [com.android.support:support-core-ui:24.2.0] /home/cbpaguay/.gradle/caches/transforms-2/files-2.1/122a60a1be2d7350a0d1ccad64475eed/support-core-ui-24.2.0/AndroidManifest.xml:21:5-23:58
MERGED from [com.android.support:animated-vector-drawable:24.2.0] /home/cbpaguay/.gradle/caches/transforms-2/files-2.1/1e10b7c8742994fa78a6ea8ca3af6d29/animated-vector-drawable-24.2.0/AndroidManifest.xml:20:5-44
MERGED from [com.android.support:animated-vector-drawable:24.2.0] /home/cbpaguay/.gradle/caches/transforms-2/files-2.1/1e10b7c8742994fa78a6ea8ca3af6d29/animated-vector-drawable-24.2.0/AndroidManifest.xml:20:5-44
MERGED from [com.android.support:support-vector-drawable:24.2.0] /home/cbpaguay/.gradle/caches/transforms-2/files-2.1/05827b50c1087358ece872f97f332a52/support-vector-drawable-24.2.0/AndroidManifest.xml:21:5-43
MERGED from [com.android.support:support-vector-drawable:24.2.0] /home/cbpaguay/.gradle/caches/transforms-2/files-2.1/05827b50c1087358ece872f97f332a52/support-vector-drawable-24.2.0/AndroidManifest.xml:21:5-43
MERGED from [com.android.support:support-compat:24.2.0] /home/cbpaguay/.gradle/caches/transforms-2/files-2.1/497b042d7fde88db6c2bd366aa27826c/support-compat-24.2.0/AndroidManifest.xml:21:5-23:58
MERGED from [com.android.support:support-compat:24.2.0] /home/cbpaguay/.gradle/caches/transforms-2/files-2.1/497b042d7fde88db6c2bd366aa27826c/support-compat-24.2.0/AndroidManifest.xml:21:5-23:58
INJECTED from /home/cbpaguay/disp_movil/capitulos_android/Source_Code_Chapter_3/3_06_RESTWithRetrofit/src/main/AndroidManifest.xml
INJECTED from /home/cbpaguay/disp_movil/capitulos_android/Source_Code_Chapter_3/3_06_RESTWithRetrofit/src/main/AndroidManifest.xml
	tools:overrideLibrary
		ADDED from [com.android.support:appcompat-v7:24.2.0] /home/cbpaguay/.gradle/caches/transforms-2/files-2.1/2aa129a25abc8722bb5e1735a1f49a5e/appcompat-v7-24.2.0/AndroidManifest.xml:23:9-75
	android:targetSdkVersion
		INJECTED from /home/cbpaguay/disp_movil/capitulos_android/Source_Code_Chapter_3/3_06_RESTWithRetrofit/src/main/AndroidManifest.xml
		ADDED from /home/cbpaguay/disp_movil/capitulos_android/Source_Code_Chapter_3/3_06_RESTWithRetrofit/src/main/AndroidManifest.xml
		INJECTED from /home/cbpaguay/disp_movil/capitulos_android/Source_Code_Chapter_3/3_06_RESTWithRetrofit/src/main/AndroidManifest.xml
	android:minSdkVersion
		INJECTED from /home/cbpaguay/disp_movil/capitulos_android/Source_Code_Chapter_3/3_06_RESTWithRetrofit/src/main/AndroidManifest.xml
		ADDED from /home/cbpaguay/disp_movil/capitulos_android/Source_Code_Chapter_3/3_06_RESTWithRetrofit/src/main/AndroidManifest.xml
		INJECTED from /home/cbpaguay/disp_movil/capitulos_android/Source_Code_Chapter_3/3_06_RESTWithRetrofit/src/main/AndroidManifest.xml
