-- Merging decision tree log ---
manifest
ADDED from /home/cbpaguay/disp_movil/capitulos_android/Source_Code_Chapter_3/3_07_JSON/src/main/AndroidManifest.xml:1:1-24:12
INJECTED from /home/cbpaguay/disp_movil/capitulos_android/Source_Code_Chapter_3/3_07_JSON/src/main/AndroidManifest.xml:1:1-24:12
INJECTED from /home/cbpaguay/disp_movil/capitulos_android/Source_Code_Chapter_3/3_07_JSON/src/main/AndroidManifest.xml:1:1-24:12
INJECTED from /home/cbpaguay/disp_movil/capitulos_android/Source_Code_Chapter_3/3_07_JSON/src/main/AndroidManifest.xml:1:1-24:12
MERGED from [com.android.databinding:adapters:4.1.1] /home/cbpaguay/.gradle/caches/transforms-2/files-2.1/62ab09728628b9dbaa2019545a9b84b7/adapters-4.1.1/AndroidManifest.xml:17:1-24:12
MERGED from [com.android.databinding:library:4.1.1] /home/cbpaguay/.gradle/caches/transforms-2/files-2.1/33b4495e29e79eaa4457cf6baa54e035/library-4.1.1/AndroidManifest.xml:17:1-24:12
MERGED from [com.android.support.constraint:constraint-layout:1.0.2] /home/cbpaguay/.gradle/caches/transforms-2/files-2.1/b703eeb50455644a9f19e020c78f6a7d/constraint-layout-1.0.2/AndroidManifest.xml:2:1-11:12
MERGED from [com.android.databinding:viewbinding:4.1.1] /home/cbpaguay/.gradle/caches/transforms-2/files-2.1/071e1f036ab71f439785ffefef1361d8/viewbinding-4.1.1/AndroidManifest.xml:17:1-22:12
MERGED from [com.android.support:support-core-utils:26.1.0] /home/cbpaguay/.gradle/caches/transforms-2/files-2.1/2376a9c5389a793b77128804925b0474/support-core-utils-26.1.0/AndroidManifest.xml:17:1-31:12
MERGED from [com.android.support:support-compat:26.1.0] /home/cbpaguay/.gradle/caches/transforms-2/files-2.1/89fb32c82c17055e8c7357f2c6e60a52/support-compat-26.1.0/AndroidManifest.xml:17:1-31:12
MERGED from [android.arch.lifecycle:runtime:1.0.3] /home/cbpaguay/.gradle/caches/transforms-2/files-2.1/4ee9deb39d4f6ae71451454076275831/runtime-1.0.3/AndroidManifest.xml:17:1-24:12
INJECTED from /home/cbpaguay/disp_movil/capitulos_android/Source_Code_Chapter_3/3_07_JSON/src/main/AndroidManifest.xml:1:1-24:12
INJECTED from /home/cbpaguay/disp_movil/capitulos_android/Source_Code_Chapter_3/3_07_JSON/src/main/AndroidManifest.xml:1:1-24:12
INJECTED from /home/cbpaguay/disp_movil/capitulos_android/Source_Code_Chapter_3/3_07_JSON/src/main/AndroidManifest.xml:1:1-24:12
	package
		ADDED from /home/cbpaguay/disp_movil/capitulos_android/Source_Code_Chapter_3/3_07_JSON/src/main/AndroidManifest.xml:2:11-44
		INJECTED from /home/cbpaguay/disp_movil/capitulos_android/Source_Code_Chapter_3/3_07_JSON/src/main/AndroidManifest.xml
		INJECTED from /home/cbpaguay/disp_movil/capitulos_android/Source_Code_Chapter_3/3_07_JSON/src/main/AndroidManifest.xml
	android:versionName
		ADDED from /home/cbpaguay/disp_movil/capitulos_android/Source_Code_Chapter_3/3_07_JSON/src/main/AndroidManifest.xml:4:11-36
		INJECTED from /home/cbpaguay/disp_movil/capitulos_android/Source_Code_Chapter_3/3_07_JSON/src/main/AndroidManifest.xml
		INJECTED from /home/cbpaguay/disp_movil/capitulos_android/Source_Code_Chapter_3/3_07_JSON/src/main/AndroidManifest.xml
	xmlns:android
		ADDED from /home/cbpaguay/disp_movil/capitulos_android/Source_Code_Chapter_3/3_07_JSON/src/main/AndroidManifest.xml:1:11-69
	android:versionCode
		ADDED from /home/cbpaguay/disp_movil/capitulos_android/Source_Code_Chapter_3/3_07_JSON/src/main/AndroidManifest.xml:3:11-34
		INJECTED from /home/cbpaguay/disp_movil/capitulos_android/Source_Code_Chapter_3/3_07_JSON/src/main/AndroidManifest.xml
		INJECTED from /home/cbpaguay/disp_movil/capitulos_android/Source_Code_Chapter_3/3_07_JSON/src/main/AndroidManifest.xml
uses-sdk
ADDED from /home/cbpaguay/disp_movil/capitulos_android/Source_Code_Chapter_3/3_07_JSON/src/main/AndroidManifest.xml:6:5-8:40
INJECTED from /home/cbpaguay/disp_movil/capitulos_android/Source_Code_Chapter_3/3_07_JSON/src/main/AndroidManifest.xml:6:5-8:40
INJECTED from /home/cbpaguay/disp_movil/capitulos_android/Source_Code_Chapter_3/3_07_JSON/src/main/AndroidManifest.xml:6:5-8:40
MERGED from [com.android.databinding:adapters:4.1.1] /home/cbpaguay/.gradle/caches/transforms-2/files-2.1/62ab09728628b9dbaa2019545a9b84b7/adapters-4.1.1/AndroidManifest.xml:22:5-44
MERGED from [com.android.databinding:adapters:4.1.1] /home/cbpaguay/.gradle/caches/transforms-2/files-2.1/62ab09728628b9dbaa2019545a9b84b7/adapters-4.1.1/AndroidManifest.xml:22:5-44
MERGED from [com.android.databinding:library:4.1.1] /home/cbpaguay/.gradle/caches/transforms-2/files-2.1/33b4495e29e79eaa4457cf6baa54e035/library-4.1.1/AndroidManifest.xml:22:5-44
MERGED from [com.android.databinding:library:4.1.1] /home/cbpaguay/.gradle/caches/transforms-2/files-2.1/33b4495e29e79eaa4457cf6baa54e035/library-4.1.1/AndroidManifest.xml:22:5-44
MERGED from [com.android.support.constraint:constraint-layout:1.0.2] /home/cbpaguay/.gradle/caches/transforms-2/files-2.1/b703eeb50455644a9f19e020c78f6a7d/constraint-layout-1.0.2/AndroidManifest.xml:5:5-7:41
MERGED from [com.android.support.constraint:constraint-layout:1.0.2] /home/cbpaguay/.gradle/caches/transforms-2/files-2.1/b703eeb50455644a9f19e020c78f6a7d/constraint-layout-1.0.2/AndroidManifest.xml:5:5-7:41
MERGED from [com.android.databinding:viewbinding:4.1.1] /home/cbpaguay/.gradle/caches/transforms-2/files-2.1/071e1f036ab71f439785ffefef1361d8/viewbinding-4.1.1/AndroidManifest.xml:20:5-44
MERGED from [com.android.databinding:viewbinding:4.1.1] /home/cbpaguay/.gradle/caches/transforms-2/files-2.1/071e1f036ab71f439785ffefef1361d8/viewbinding-4.1.1/AndroidManifest.xml:20:5-44
MERGED from [com.android.support:support-core-utils:26.1.0] /home/cbpaguay/.gradle/caches/transforms-2/files-2.1/2376a9c5389a793b77128804925b0474/support-core-utils-26.1.0/AndroidManifest.xml:21:5-23:61
MERGED from [com.android.support:support-core-utils:26.1.0] /home/cbpaguay/.gradle/caches/transforms-2/files-2.1/2376a9c5389a793b77128804925b0474/support-core-utils-26.1.0/AndroidManifest.xml:21:5-23:61
MERGED from [com.android.support:support-compat:26.1.0] /home/cbpaguay/.gradle/caches/transforms-2/files-2.1/89fb32c82c17055e8c7357f2c6e60a52/support-compat-26.1.0/AndroidManifest.xml:21:5-23:58
MERGED from [com.android.support:support-compat:26.1.0] /home/cbpaguay/.gradle/caches/transforms-2/files-2.1/89fb32c82c17055e8c7357f2c6e60a52/support-compat-26.1.0/AndroidManifest.xml:21:5-23:58
MERGED from [android.arch.lifecycle:runtime:1.0.3] /home/cbpaguay/.gradle/caches/transforms-2/files-2.1/4ee9deb39d4f6ae71451454076275831/runtime-1.0.3/AndroidManifest.xml:20:5-22:41
MERGED from [android.arch.lifecycle:runtime:1.0.3] /home/cbpaguay/.gradle/caches/transforms-2/files-2.1/4ee9deb39d4f6ae71451454076275831/runtime-1.0.3/AndroidManifest.xml:20:5-22:41
INJECTED from /home/cbpaguay/disp_movil/capitulos_android/Source_Code_Chapter_3/3_07_JSON/src/main/AndroidManifest.xml:6:5-8:40
INJECTED from /home/cbpaguay/disp_movil/capitulos_android/Source_Code_Chapter_3/3_07_JSON/src/main/AndroidManifest.xml:6:5-8:40
	tools:overrideLibrary
		ADDED from [com.android.support:support-core-utils:26.1.0] /home/cbpaguay/.gradle/caches/transforms-2/files-2.1/2376a9c5389a793b77128804925b0474/support-core-utils-26.1.0/AndroidManifest.xml:23:9-58
	android:targetSdkVersion
		ADDED from /home/cbpaguay/disp_movil/capitulos_android/Source_Code_Chapter_3/3_07_JSON/src/main/AndroidManifest.xml:8:9-38
		INJECTED from /home/cbpaguay/disp_movil/capitulos_android/Source_Code_Chapter_3/3_07_JSON/src/main/AndroidManifest.xml
		INJECTED from /home/cbpaguay/disp_movil/capitulos_android/Source_Code_Chapter_3/3_07_JSON/src/main/AndroidManifest.xml
	android:minSdkVersion
		ADDED from /home/cbpaguay/disp_movil/capitulos_android/Source_Code_Chapter_3/3_07_JSON/src/main/AndroidManifest.xml:7:9-35
		INJECTED from /home/cbpaguay/disp_movil/capitulos_android/Source_Code_Chapter_3/3_07_JSON/src/main/AndroidManifest.xml
		INJECTED from /home/cbpaguay/disp_movil/capitulos_android/Source_Code_Chapter_3/3_07_JSON/src/main/AndroidManifest.xml
application
ADDED from /home/cbpaguay/disp_movil/capitulos_android/Source_Code_Chapter_3/3_07_JSON/src/main/AndroidManifest.xml:10:5-22:19
MERGED from [com.android.support.constraint:constraint-layout:1.0.2] /home/cbpaguay/.gradle/caches/transforms-2/files-2.1/b703eeb50455644a9f19e020c78f6a7d/constraint-layout-1.0.2/AndroidManifest.xml:9:5-20
MERGED from [com.android.support.constraint:constraint-layout:1.0.2] /home/cbpaguay/.gradle/caches/transforms-2/files-2.1/b703eeb50455644a9f19e020c78f6a7d/constraint-layout-1.0.2/AndroidManifest.xml:9:5-20
MERGED from [com.android.support:support-core-utils:26.1.0] /home/cbpaguay/.gradle/caches/transforms-2/files-2.1/2376a9c5389a793b77128804925b0474/support-core-utils-26.1.0/AndroidManifest.xml:25:5-29:19
MERGED from [com.android.support:support-core-utils:26.1.0] /home/cbpaguay/.gradle/caches/transforms-2/files-2.1/2376a9c5389a793b77128804925b0474/support-core-utils-26.1.0/AndroidManifest.xml:25:5-29:19
MERGED from [com.android.support:support-compat:26.1.0] /home/cbpaguay/.gradle/caches/transforms-2/files-2.1/89fb32c82c17055e8c7357f2c6e60a52/support-compat-26.1.0/AndroidManifest.xml:25:5-29:19
MERGED from [com.android.support:support-compat:26.1.0] /home/cbpaguay/.gradle/caches/transforms-2/files-2.1/89fb32c82c17055e8c7357f2c6e60a52/support-compat-26.1.0/AndroidManifest.xml:25:5-29:19
	android:label
		ADDED from /home/cbpaguay/disp_movil/capitulos_android/Source_Code_Chapter_3/3_07_JSON/src/main/AndroidManifest.xml:11:9-41
	android:icon
		ADDED from /home/cbpaguay/disp_movil/capitulos_android/Source_Code_Chapter_3/3_07_JSON/src/main/AndroidManifest.xml:12:9-45
	android:theme
		ADDED from /home/cbpaguay/disp_movil/capitulos_android/Source_Code_Chapter_3/3_07_JSON/src/main/AndroidManifest.xml:13:9-40
activity#com.androidrecipes.json.JsonActivity
ADDED from /home/cbpaguay/disp_movil/capitulos_android/Source_Code_Chapter_3/3_07_JSON/src/main/AndroidManifest.xml:14:9-21:20
	android:label
		ADDED from /home/cbpaguay/disp_movil/capitulos_android/Source_Code_Chapter_3/3_07_JSON/src/main/AndroidManifest.xml:16:13-45
	android:name
		ADDED from /home/cbpaguay/disp_movil/capitulos_android/Source_Code_Chapter_3/3_07_JSON/src/main/AndroidManifest.xml:15:13-64
intent-filter#action:name:android.intent.action.MAIN+category:name:android.intent.category.LAUNCHER
ADDED from /home/cbpaguay/disp_movil/capitulos_android/Source_Code_Chapter_3/3_07_JSON/src/main/AndroidManifest.xml:17:13-20:29
action#android.intent.action.MAIN
ADDED from /home/cbpaguay/disp_movil/capitulos_android/Source_Code_Chapter_3/3_07_JSON/src/main/AndroidManifest.xml:18:17-68
	android:name
		ADDED from /home/cbpaguay/disp_movil/capitulos_android/Source_Code_Chapter_3/3_07_JSON/src/main/AndroidManifest.xml:18:25-66
category#android.intent.category.LAUNCHER
ADDED from /home/cbpaguay/disp_movil/capitulos_android/Source_Code_Chapter_3/3_07_JSON/src/main/AndroidManifest.xml:19:17-76
	android:name
		ADDED from /home/cbpaguay/disp_movil/capitulos_android/Source_Code_Chapter_3/3_07_JSON/src/main/AndroidManifest.xml:19:27-74
meta-data#android.support.VERSION
ADDED from [com.android.support:support-core-utils:26.1.0] /home/cbpaguay/.gradle/caches/transforms-2/files-2.1/2376a9c5389a793b77128804925b0474/support-core-utils-26.1.0/AndroidManifest.xml:26:9-28:38
MERGED from [com.android.support:support-compat:26.1.0] /home/cbpaguay/.gradle/caches/transforms-2/files-2.1/89fb32c82c17055e8c7357f2c6e60a52/support-compat-26.1.0/AndroidManifest.xml:26:9-28:38
MERGED from [com.android.support:support-compat:26.1.0] /home/cbpaguay/.gradle/caches/transforms-2/files-2.1/89fb32c82c17055e8c7357f2c6e60a52/support-compat-26.1.0/AndroidManifest.xml:26:9-28:38
	android:value
		ADDED from [com.android.support:support-core-utils:26.1.0] /home/cbpaguay/.gradle/caches/transforms-2/files-2.1/2376a9c5389a793b77128804925b0474/support-core-utils-26.1.0/AndroidManifest.xml:28:13-35
	android:name
		ADDED from [com.android.support:support-core-utils:26.1.0] /home/cbpaguay/.gradle/caches/transforms-2/files-2.1/2376a9c5389a793b77128804925b0474/support-core-utils-26.1.0/AndroidManifest.xml:27:13-51
